================================================================================
Начальная задача:
================================================================================
Ограничения:
  3.00   5.00  -1.00 <=   7.00
 -1.00  -1.00  -1.00 <=   7.00
  1.00   1.00   1.00 <=   2.89
  0.00  -1.00   1.00 <=   1.95

X = 
Y =   2.47   0.00   0.42 
Оценка(решение) =  2.89

================================================================================
Добавляем новую задачу:       2
================================================================================
Ограничения:
  3.00   5.00  -1.00 <=   7.00
 -1.00  -1.00  -1.00 <=   7.00
  1.00   1.00   1.00 <=   2.89
  0.00  -1.00   1.00 <=   1.95
  1.00   0.00   0.00  =   1.00

X = 
Y =   1.00   0.00   1.89 
Оценка(решение) =  2.89

================================================================================
Добавляем новую задачу:       3
================================================================================
Ограничения:
  3.00   5.00  -1.00 <=   7.00
 -1.00  -1.00  -1.00 <=   7.00
  1.00   1.00   1.00 <=   2.89
  0.00  -1.00   1.00 <=   1.95
  1.00   0.00   0.00  =   0.00

X = 
Y =   0.00   0.00   1.95 
Оценка(решение) =  1.95

================================================================================
Добавляем новую задачу:       4
================================================================================
Ограничения:
  3.00   5.00  -1.00 <=   7.00
 -1.00  -1.00  -1.00 <=   7.00
  1.00   1.00   1.00 <=   2.89
  0.00  -1.00   1.00 <=   1.95
  1.00   0.00   0.00  =   1.00
  0.00   0.00   1.00  =   1.00

X = 
Y =   1.00   0.00   1.00 
Оценка(решение) =  2.00

================================================================================
Добавляем новую задачу:       5
================================================================================
Ограничения:
  3.00   5.00  -1.00 <=   7.00
 -1.00  -1.00  -1.00 <=   7.00
  1.00   1.00   1.00 <=   2.89
  0.00  -1.00   1.00 <=   1.95
  1.00   0.00   0.00  =   1.00
  0.00   0.00   1.00  =   0.00

X = 
Y =   1.00   0.00   0.00 
Оценка(решение) =  1.00

================================================================================
Удаляем задачу:       2
================================================================================
================================================================================
Удаляем задачу:       3
================================================================================
================================================================================
Удаляем задачу:       5
================================================================================


================================================================================
Решение:
================================================================================
X = 
Y =   1.00   0.00   1.00 
Оценка(решение) =  2.00
